{
  "product_name": "Name of React App product",
  "project_slug": "{{ cookiecutter.product_name.lower()|replace(' ', '-') }}",
  "username": "Username for logging into site at localhost:8080",
  "password": "Password for logging into site at localhost:8080"
}
